LSAY_EDA
…
studying_teachers_2006

# A tibble: 29 × 12
   STIDSTD LBC087 LCC087 LDC087 LEC087 LFC087 LGC088 LHC088 LIC088 LJC088 LKC088
     <dbl>  <dbl>  <dbl>  <dbl>  <dbl>  <dbl>  <dbl>  <dbl>  <dbl>  <dbl>  <dbl>
 1     742     NA     NA     NA     NA     NA     NA     NA      1     NA     NA
 2     746     NA     NA     NA      0     NA      1     NA     NA     NA     NA
 3     947     NA     NA     NA      1     NA     NA     NA     NA     NA     NA
 4    1530     NA     NA     NA     NA     NA     NA     NA      0      1     NA
 5    1628     NA     NA     NA     NA      1     NA     NA     NA     NA     NA
 6    4340     NA     NA     NA     NA     NA     NA      1     NA     NA     NA
 7    5391     NA     NA     NA     NA     NA     NA      1     NA     NA     NA
 8    5904     NA     NA     NA      0      1     NA     NA     NA     NA     NA
 9    6239     NA     NA     NA     NA     NA      1     NA     NA     NA     NA
10    6263     NA     NA     NA      1     NA     NA     NA     NA     NA     NA
# ℹ 19 more rows
# ℹ 1 more variable: unique_teachers <lgl>
…
studying_teachers_2009

# A tibble: 28 × 12
   STIDSTD LBC089 LCC088 LDC088 LEC088 LFC088 LGC088 LHC088 LIC088 LJC088 LKC088
   <chr>    <dbl>  <dbl>  <dbl>  <dbl>  <dbl>  <dbl>  <dbl>  <dbl>  <dbl>  <dbl>
 1 01258       NA     NA     NA     NA      0      1     NA     NA     NA     NA
 2 01386       NA     NA     NA      1     NA     NA     NA     NA     NA     NA
 3 01388       NA     NA     NA     NA     NA     NA     NA      1     NA     NA
 4 02316       NA     NA     NA     NA     NA     NA     NA      1     NA     NA
 5 02816       NA     NA     NA      1     NA     NA     NA     NA     NA     NA
 6 03779       NA     NA     NA     NA     NA     NA     NA     NA      1     NA
 7 04324       NA     NA     NA      0     NA     NA      1     NA     NA     NA
 8 05514       NA     NA     NA      0      1      0     NA     NA     NA     NA
 9 05749       NA     NA     NA     NA     NA     NA     NA      1     NA     NA
10 06376       NA     NA      1     NA     NA     NA     NA     NA     NA     NA
# ℹ 18 more rows
# ℹ 1 more variable: unique_teachers <lgl>
…
teachers_2009

# A tibble: 121 × 13
   STIDSTD ANZSCO73 LBD014 LCD029 LDD029 LED029 LFD029 LGD029 LHD029 LID029
   <chr>      <dbl>  <dbl>  <dbl>  <dbl>  <dbl>  <dbl>  <dbl>  <dbl>  <dbl>
 1 00267          0      0      0      0      0      0      0      0      0
 2 00276         NA     NA      0      0      0      0      0      0      0
 3 00323         NA     NA     NA      0      0      0      0      1      1
 4 00360          0      0     NA      0      0      0      0      1      1
 5 00667          0      0      0      0     NA      0      0      0      0
 6 00734         NA     NA     NA     NA     NA     NA     NA      1      0
 7 00798          0      0      0      0      0      0      0      1      1
 8 00921          0      0     NA      0     NA     NA      1     NA      0
 9 00937          0      0      0      0      0      0      0      0      0
10 00965          0      0      0      0      0      0      0      1      1
# ℹ 111 more rows
# ℹ 3 more variables: LJD029 <dbl>, LKD029 <dbl>, legit_teachers <lgl>
…
studying_teachers_2015

# A tibble: 24 × 8
   LSAYID LCC088 LDC088 LEC088 LFC088 LGC088 LHC088 unique_teachers
    <dbl>  <dbl>  <dbl>  <dbl>  <dbl>  <dbl>  <dbl> <lgl>          
 1  25143     NA     NA     NA     NA      1     NA TRUE           
 2  25239     NA     NA      1     NA     NA     NA TRUE           
 3  25314     NA     NA     NA     NA     NA      1 TRUE           
 4  19492     NA     NA      1     NA     NA     NA TRUE           
 5  16115     NA     NA     NA     NA     NA      1 TRUE           
 6  15886     NA     NA      1     NA     NA     NA TRUE           
 7  14822     NA     NA     NA      1     NA     NA TRUE           
 8  21839     NA     NA     NA     NA      1     NA TRUE           
 9  15910      1     NA     NA     NA     NA     NA TRUE           
10  23628     NA     NA     NA     NA      1     NA TRUE           
# ℹ 14 more rows
…
teacher_2015

# A tibble: 31 × 9
   LSAYID LBEM004 LCD022 LDD022 LED022 LFD025 LGD022 LHD022 legit_teachers
    <dbl>   <dbl>  <dbl>  <dbl>  <dbl>  <dbl>  <dbl>  <dbl> <lgl>         
 1  25045      NA     NA      0      0      0      0      1 TRUE          
 2  25239      NA      0      0      0      0      0      1 TRUE          
 3  25332      NA      0     NA      0      0      0      1 TRUE          
 4  25420      NA      0      0     NA      0     NA      1 TRUE          
 5  10287      NA     NA     NA      0      0      1      0 TRUE          
 6  20594       0      0      0     NA      0      0      1 TRUE          
 7  21108       0     NA      0      0      0      0      1 TRUE          
 8  14568       0      0      0      0      0      0      1 TRUE          
 9  18706       0      0      0      0      0      0      1 TRUE          
10  10845       0      0      0      0      0      0      1 TRUE          
# ℹ 21 more rows
…
